{
	"cards": [
	{
		"id": 236,
		"dangerLevels": [
		{
			"level": "blue",
			"monsterNumber": 2,
			"monsterType": "crowz"
		},
		{
			"level": "yellow",
			"monsterNumber": 3,
			"monsterType": "crowz"
		},
		{
			"level": "orange",
			"monsterNumber": 4,
			"monsterType": "crowz"
		},
		{
			"level": "red",
			"monsterNumber": 5,
			"monsterType": "crowz"
		}
		]
	},
	{
		"id": 237,
		"dangerLevels": [
		{
			"level": "blue",
			"monsterNumber": 2,
			"monsterType": "crowz"
		},
		{
			"level": "yellow",
			"monsterNumber": 3,
			"monsterType": "crowz"
		},
		{
			"level": "orange",
			"monsterNumber": 4,
			"monsterType": "crowz"
		},
		{
			"level": "red",
			"monsterNumber": 5,
			"monsterType": "crowz"
		}
		]
	},
	{
		"id": 238,
		"dangerLevels": [
		{
			"level": "blue",
			"monsterNumber": 2,
			"monsterType": "crowz"
		},
		{
			"level": "yellow",
			"monsterNumber": 3,
			"monsterType": "crowz"
		},
		{
			"level": "orange",
			"monsterNumber": 4,
			"monsterType": "crowz"
		},
		{
			"level": "red",
			"monsterNumber": 5,
			"monsterType": "crowz"
		}
		]
	},
	{
		"id": 239,
		"dangerLevels": [
		{
			"level": "blue",
			"monsterNumber": 2,
			"monsterType": "crowz"
		},
		{
			"level": "yellow",
			"monsterNumber": 3,
			"monsterType": "crowz"
		},
		{
			"level": "orange",
			"monsterNumber": 4,
			"monsterType": "crowz"
		},
		{
			"level": "red",
			"monsterNumber": 5,
			"monsterType": "crowz"
		}
		]
	},
	{
		"id": 240,
		"dangerLevels": [
		{
			"level": "blue",
			"monsterNumber": 2,
			"monsterType": "crowz"
		},
		{
			"level": "yellow",
			"monsterNumber": 3,
			"monsterType": "crowz"
		},
		{
			"level": "orange",
			"monsterNumber": 4,
			"monsterType": "crowz"
		},
		{
			"level": "red",
			"monsterNumber": 5,
			"monsterType": "crowz"
		}
		]
	},
	{
		"id": 241,
		"dangerLevels": [
		{
			"level": "blue",
			"monsterNumber": 2,
			"monsterType": "crowz"
		},
		{
			"level": "yellow",
			"monsterNumber": 3,
			"monsterType": "crowz"
		},
		{
			"level": "orange",
			"monsterNumber": 4,
			"monsterType": "crowz"
		},
		{
			"level": "red",
			"monsterNumber": 5,
			"monsterType": "crowz"
		}
		]
	},
	{
		"id": 242,
		"dangerLevels": [
		{
			"level": "blue",
			"monsterNumber": 2,
			"monsterType": "crowz"
		},
		{
			"level": "yellow",
			"monsterNumber": 3,
			"monsterType": "crowz"
		},
		{
			"level": "orange",
			"monsterNumber": 4,
			"monsterType": "crowz"
		},
		{
			"level": "red",
			"monsterNumber": 5,
			"monsterType": "crowz"
		}
		]
	},
	{
		"id": 243,
		"dangerLevels": [
		{
			"level": "blue",
			"monsterNumber": 2,
			"monsterType": "crowz"
		},
		{
			"level": "yellow",
			"monsterNumber": 3,
			"monsterType": "crowz"
		},
		{
			"level": "orange",
			"monsterNumber": 4,
			"monsterType": "crowz"
		},
		{
			"level": "red",
			"monsterNumber": 5,
			"monsterType": "crowz"
		}
		]
	},
	{
		"id": 244,
		"dangerLevels": [
		{
			"level": "blue",
			"monsterNumber": 2,
			"monsterType": "crowz"
		},
		{
			"level": "yellow",
			"monsterNumber": 3,
			"monsterType": "crowz"
		},
		{
			"level": "orange",
			"monsterNumber": 4,
			"monsterType": "crowz"
		},
		{
			"level": "red",
			"monsterNumber": 5,
			"monsterType": "crowz"
		}
		]
	},
	{
		"id": 245,
		"dangerLevels": [
		{
			"level": "blue",
			"monsterNumber": 2,
			"monsterType": "crowz"
		},
		{
			"level": "yellow",
			"monsterNumber": 3,
			"monsterType": "crowz"
		},
		{
			"level": "orange",
			"monsterNumber": 4,
			"monsterType": "crowz"
		},
		{
			"level": "red",
			"monsterNumber": 5,
			"monsterType": "crowz"
		}
		]
	}
	]
}
