{
	"cards": [
	{
		"id": 212,
		"dangerLevels": [
		{
			"level": "blue",
			"monsterNumber": 1,
			"monsterType": "vipz"
		},
		{
			"level": "yellow",
			"monsterNumber": 1,
			"monsterType": "vipz"
		},
		{
			"level": "orange",
			"monsterNumber": 6,
			"monsterType": "vipz"
		},
		{
			"level": "red",
			"monsterNumber": 7,
			"monsterType": "vipz"
		}
		]
	},
	{
		"id": 213,
		"dangerLevels": [
		{
			"level": "blue",
			"monsterNumber": 1,
			"monsterType": "vipz"
		},
		{
			"level": "yellow",
			"monsterNumber": 2,
			"monsterType": "vipz"
		},
		{
			"level": "orange",
			"monsterNumber": 2,
			"monsterType": "vipz"
		},
		{
			"level": "red",
			"monsterNumber": 8,
			"monsterType": "vipz"
		}
		]
	},
	{
		"id": 214,
		"dangerLevels": [
		{
			"level": "blue",
			"monsterNumber": 2,
			"monsterType": "vipz"
		},
		{
			"level": "yellow",
			"monsterNumber": 3,
			"monsterType": "vipz"
		},
		{
			"level": "orange",
			"monsterNumber": 4,
			"monsterType": "vipz"
		},
		{
			"level": "red",
			"monsterNumber": 4,
			"monsterType": "vipz"
		}
		]
	},
	{
		"id": 215,
		"dangerLevels": [
		{
			"level": "blue",
			"monsterNumber": 0
		},
		{
			"level": "yellow",
			"monsterNumber": 4,
			"monsterType": "vipz"
		},
		{
			"level": "orange",
			"monsterNumber": 4,
			"monsterType": "vipz"
		},
		{
			"level": "red",
			"monsterNumber": 5,
			"monsterType": "vipz"
		}
		]
	},
	{
		"id": 216,
		"dangerLevels": [
		{
			"level": "blue",
			"monsterNumber": 1,
			"monsterType": "vipz"
		},
		{
			"level": "yellow",
			"monsterNumber": 1,
			"monsterType": "vipz"
		},
		{
			"level": "orange",
			"monsterNumber": 6,
			"monsterType": "vipz"
		},
		{
			"level": "red",
			"monsterNumber": 7,
			"monsterType": "vipz"
		}
		]
	},
	{
		"id": 217,
		"dangerLevels": [
		{
			"level": "blue",
			"monsterNumber": 1,
			"monsterType": "vipz"
		},
		{
			"level": "yellow",
			"monsterNumber": 2,
			"monsterType": "vipz"
		},
		{
			"level": "orange",
			"monsterNumber": 2,
			"monsterType": "vipz"
		},
		{
			"level": "red",
			"monsterNumber": 8,
			"monsterType": "vipz"
		}
		]
	},
	{
		"id": 218,
		"dangerLevels": [
		{
			"level": "blue",
			"monsterNumber": 2,
			"monsterType": "vipz"
		},
		{
			"level": "yellow",
			"monsterNumber": 3,
			"monsterType": "vipz"
		},
		{
			"level": "orange",
			"monsterNumber": 4,
			"monsterType": "vipz"
		},
		{
			"level": "red",
			"monsterNumber": 4,
			"monsterType": "vipz"
		}
		]
	},
	{
		"id": 219,
		"dangerLevels": [
		{
			"level": "blue",
			"monsterNumber": 0
		},
		{
			"level": "yellow",
			"monsterNumber": 4,
			"monsterType": "vipz"
		},
		{
			"level": "orange",
			"monsterNumber": 4,
			"monsterType": "vipz"
		},
		{
			"level": "red",
			"monsterNumber": 5,
			"monsterType": "vipz"
		}
		]
	},
	{
		"id": 220,
		"dangerLevels": [
		{
			"level": "blue",
			"monsterNumber": 1,
			"monsterType": "vipz"
		},
		{
			"level": "yellow",
			"monsterNumber": 1,
			"monsterType": "vipz"
		},
		{
			"level": "orange",
			"monsterNumber": 6,
			"monsterType": "vipz"
		},
		{
			"level": "red",
			"monsterNumber": 7,
			"monsterType": "vipz"
		}
		]
	},
	{
		"id": 221,
		"dangerLevels": [
		{
			"level": "blue",
			"monsterNumber": 1,
			"monsterType": "vipz"
		},
		{
			"level": "yellow",
			"monsterNumber": 2,
			"monsterType": "vipz"
		},
		{
			"level": "orange",
			"monsterNumber": 2,
			"monsterType": "vipz"
		},
		{
			"level": "red",
			"monsterNumber": 8,
			"monsterType": "vipz"
		}
		]
	},
	{
		"id": 222,
		"dangerLevels": [
		{
			"level": "blue",
			"monsterNumber": 2,
			"monsterType": "vipz"
		},
		{
			"level": "yellow",
			"monsterNumber": 3,
			"monsterType": "vipz"
		},
		{
			"level": "orange",
			"monsterNumber": 4,
			"monsterType": "vipz"
		},
		{
			"level": "red",
			"monsterNumber": 4,
			"monsterType": "vipz"
		}
		]
	}
	]
}
